// Jest Snapshot v1, https://goo.gl/fbAQLP

exports[`session-recovery  middleware Changing baseApi option 1`] = `"<form action=\\"/whatever/foo/bar/auth/session/recovery\\" method=POST name=recovery-form class=is-inline> <button type=\\"submit\\">Submit</button> <input type=text value=\\"111.222.333\\" name=jwt class=\\"is-hidden invisible hidden\\" /> </form>"`;

exports[`session-recovery  middleware Default options 1`] = `"<form action=\\"/bff/auth/session\\" method=POST name=recovery-form class=is-inline> <button type=\\"submit\\">Submit</button> <input type=text value=\\"111.222.444\\" name=jwt class=\\"is-hidden invisible hidden\\" /> </form>"`;

exports[`session-recovery  middleware Redirect option 1`] = `"<form action=\\"/bff/auth/session\\" method=POST name=recovery-form class=is-inline> <button type=\\"submit\\">Submit</button> <input type=text value=\\"\\" name=jwt class=\\"is-hidden invisible hidden\\" /><input type=text value=\\"%2Fhello-world\\" name=redirect class=\\"is-hidden invisible hidden\\" /> </form>"`;
